<?xml version="1.0" encoding="iso-8859-1"?>
<!-- Generator: Adobe Illustrator 18.1.0, SVG Export Plug-In . SVG Version: 6.00 Build 0)  -->
<svg version="1.1" xmlns="http://www.w3.org/2000/svg" xmlns:xlink="http://www.w3.org/1999/xlink" x="0px" y="0px"
	 viewBox="0 0 88 88" style="enable-background:new 0 0 88 88;" xml:space="preserve">
<g id="Ebene_31">
	<g>
		<polygon points="75.95,69.206 69.317,75.95 44,52.07 18.794,75.95 12.05,69.206 36.04,44.111 11.829,18.905 18.573,12.05 
			44,36.151 69.427,12.05 76.171,18.905 51.96,44.111 75.95,69.206 		"/>
	</g>
</g>
<g id="Ebene_1">
</g>
</svg>
